{
    "name": "ZugCRM",
    "app_id": "98af1568",
    "type": "ionic-angular",
    "integrations": {
        "cordova": {}
    },
    "proxies": [{
        "path": "/api",
        "proxyUrl": "https://zugent.com/services/request_agent.php"
    }, {
        "path": "/apilocal",
        "proxyUrl": "https://fcc.local/services/request_agent.php"
    }, {
        "path": "/get_agents",
        "proxyUrl": "https://zugent.com/services/request_agents/get_agents.php"
    }, {
        "path": "/check_response_agent",
        "proxyUrl": "https://zugent.com/services/request_agents/check_response_agents.php"
    }, {
        "path": "/update_agent_position",
        "proxyUrl": "https://zugent.com/services/request_agents/update_agent_position.php"
    }, {
        "path": "/send_agent_message",
        "proxyUrl": "https://zugent.com/services/send_agent_email.php"
    }, {
        "path": "/test_api",
        "proxyUrl": "https://zugent.com/services/api_test.php"
    }]
}